\relax 
\@writefile{toc}{\contentsline {section}{\numberline {I}INTRODUCTION}{1}}
\@writefile{toc}{\contentsline {section}{\numberline {II}Data Mining Overview}{1}}
\@writefile{toc}{\contentsline {section}{\numberline {III}Literature Search}{2}}
\@writefile{toc}{\contentsline {section}{\numberline {IV}Data Description}{2}}
\@writefile{toc}{\contentsline {section}{\numberline {V}PROPOSED METHODOLOGY}{4}}
\@writefile{toc}{\contentsline {section}{\numberline {VI}EXPERIMENTAL RESULTS}{4}}
\bibcite{b1}{1}
\bibcite{b2}{2}
\bibcite{b3}{3}
\bibcite{b4}{4}
\bibcite{b5}{5}
\bibcite{b6}{6}
\@writefile{toc}{\contentsline {section}{\numberline {VII}RESULTS ANALYSIS}{5}}
\@writefile{toc}{\contentsline {section}{\numberline {VIII}CONCLUSION}{5}}
\@writefile{toc}{\contentsline {section}{\numberline {IX}FUTURE WORK}{5}}
\@writefile{toc}{\contentsline {section}{\numberline {X}ACKNOWLEDGMENT}{5}}
\@writefile{toc}{\contentsline {section}{References}{5}}
